BigQuery DBI driver — bigquery • bigrquery
…
#> # A tibble: 10 × 2
#>      cyl   mpg
#>    <int> <dbl>
#>  1     4  24.4
#>  2     4  22.8
#>  3     4  21.5
#>  4     6  21.4
#>  5     6  18.1
#>  6     6  19.2
#>  7     6  17.8
#>  8     8  18.7
#>  9     8  14.3
#> 10     8  16.4
dbFetch(res, -1)
#> # A tibble: 22 × 2
#>      cyl   mpg
#>    <int> <dbl>
#>  1     8  17.3
#>  2     8  15.2
#>  3     8  10.4
#>  4     8  10.4
#>  5     8  14.7
#>  6     8  15.5
#>  7     8  15.2
#>  8     8  13.3
#>  9     8  19.2
#> 10     4  22.8
#> # ℹ 12 more rows
…
